{
  "$schema": "https://json-schema.org/draft/2020-12/schema",
  "$id": "com.mercatorum.rintilla.inventorymp.StockItem",
  "title": "StockItem",
  "description": "Schema definition for Stock Item entity",
  "type": "object",
  "required": [
    "id",
    "productCode",
    "onShelfQuantity"
  ],
  "properties": {
    "id": {
      "description": "ID of the document",
      "type": "string"
    },
    "productCode": {
      "description": "Product identifier",
      "type": "string"
    },
    "onShelfQuantity": {
      "description": "Quantity available on shelf",
      "type": "integer"
    }
  }
}
