{
  "$schema": "https://json-schema.org/draft/2020-12/schema",
  "$id": "com.mercatorum.rintilla.inventorymp.ProductCreatedUpdated",
  "title": "ProductCreatedUpdated",
  "description": "Schema definition for ProductCreatedUpdated",
  "type": "object",
  "required": [
    "code",
    "name",
    "description",
    "manufacturer"
  ],
  "properties": {
    "id": {
      "description": "document id",
      "type": "string"
    },
    "code": {
      "description": "The unique identifier for a product",
      "type": "string"
    },
    "name": {
      "description": "Name of the product",
      "type": "string"
    },
    "description": {
      "description": "Description of the product",
      "type": "string"
    },
    "manufacturer": {
      "description": "Manufacturer of the product",
      "type": "string"
    },
    "barCode": {
      "description": "Bar Code to identify product via Scan",
      "type": "string"
    },
    "picture": {
      "description": "Pciture of the product",
      "type": "string"
    }
  }
}
