{
  "$schema": "https://json-schema.org/draft/2020-12/schema",
  "$id": "com.mercatorum.rintilla.inventorymp.StockMovement",
  "title": "StockMovement",
  "description": "Schema definition for Stock Movement entity",
  "type": "object",
  "required": [
    "id",
    "productCode",
    "movementType",
    "quantity"
  ],
  "properties": {
    "id": {
      "description": "ID of the document",
      "type": "string"
    },
    "productCode": {
      "description": "Product identifier",
      "type": "string"
    },
    "movementType": {
      "description": "Type of movement",
      "type": "string",
      "enum": [
        "ON_SHELF",
        "ON_SELL"
      ]
    },
    "quantity": {
      "description": "Quantity affected by movement",
      "type": "integer"
    },
    "movementDateTime": {
      "description": "Date and time of the movement",
      "type": "string",
      "format": "date-time"
    }
  }
}
